{
    "properties": [], 
    "externalReferences": [], 
    "innerClasses": [], 
    "interfaces": [], 
    "constructors": [
        {
            "modifiers": [
                "public"
            ], 
            "name": "AddtoWaitListController", 
            "parameters": [], 
            "visibility": "PUBLIC", 
            "references": [], 
            "location": {
                "column": 12, 
                "line": 3
            }, 
            "type": null
        }
    ], 
    "namespace": null, 
    "name": "AddtoWaitListController", 
    "tableDeclaration": {
        "type": "AddtoWaitListController", 
        "modifiers": [
            "public"
        ], 
        "references": [], 
        "location": {
            "column": 14, 
            "line": 1
        }, 
        "name": "AddtoWaitListController"
    }, 
    "key": "01p28000005bxYLAAY", 
    "variables": [
        {
            "type": "Map", 
            "modifiers": [], 
            "references": [], 
            "location": {
                "column": 47, 
                "line": 8
            }, 
            "name": "mapWaitlistdata"
        }, 
        {
            "type": "String", 
            "modifiers": [], 
            "references": [], 
            "location": {
                "column": 16, 
                "line": 12
            }, 
            "name": "patientemail"
        }, 
        {
            "type": "String", 
            "modifiers": [], 
            "references": [], 
            "location": {
                "column": 17, 
                "line": 13
            }, 
            "name": "ContactBirthdate"
        }, 
        {
            "type": "String", 
            "modifiers": [], 
            "references": [], 
            "location": {
                "column": 17, 
                "line": 14
            }, 
            "name": "Patientlastname"
        }, 
        {
            "type": "String", 
            "modifiers": [], 
            "references": [], 
            "location": {
                "column": 17, 
                "line": 15
            }, 
            "name": "Patientfirstname"
        }, 
        {
            "type": "String", 
            "modifiers": [], 
            "references": [], 
            "location": {
                "column": 17, 
                "line": 16
            }, 
            "name": "PatientPhone"
        }, 
        {
            "type": "String", 
            "modifiers": [], 
            "references": [], 
            "location": {
                "column": 17, 
                "line": 17
            }, 
            "name": "selectedPractitioner"
        }, 
        {
            "type": "String", 
            "modifiers": [], 
            "references": [], 
            "location": {
                "column": 17, 
                "line": 18
            }, 
            "name": "selectedLocation"
        }, 
        {
            "type": "String", 
            "modifiers": [], 
            "references": [], 
            "location": {
                "column": 17, 
                "line": 19
            }, 
            "name": "selectedCategory"
        }, 
        {
            "type": "String", 
            "modifiers": [], 
            "references": [], 
            "location": {
                "column": 17, 
                "line": 20
            }, 
            "name": "SelectedApptyp"
        }, 
        {
            "type": "String", 
            "modifiers": [], 
            "references": [], 
            "location": {
                "column": 17, 
                "line": 21
            }, 
            "name": "Note"
        }, 
        {
            "type": "String", 
            "modifiers": [], 
            "references": [], 
            "location": {
                "column": 17, 
                "line": 22
            }, 
            "name": "PractitionerName"
        }, 
        {
            "type": "Contact", 
            "modifiers": [], 
            "references": [], 
            "location": {
                "column": 21, 
                "line": 25
            }, 
            "name": "Patientinfo"
        }, 
        {
            "type": "RecordType", 
            "modifiers": [], 
            "references": [], 
            "location": {
                "column": 24, 
                "line": 26
            }, 
            "name": "rectype"
        }, 
        {
            "type": "Event", 
            "modifiers": [], 
            "references": [], 
            "location": {
                "column": 19, 
                "line": 37
            }, 
            "name": "Eventdetails"
        }, 
        {
            "type": "EventRelation", 
            "modifiers": [], 
            "references": [], 
            "location": {
                "column": 27, 
                "line": 38
            }, 
            "name": "evrel"
        }, 
        {
            "type": "Date", 
            "modifiers": [], 
            "references": [], 
            "location": {
                "column": 18, 
                "line": 88
            }, 
            "name": "formatteddate"
        }, 
        {
            "type": "LIST", 
            "modifiers": [], 
            "references": [], 
            "location": {
                "column": 48, 
                "line": 89
            }, 
            "name": "loccatmap"
        }, 
        {
            "type": "String", 
            "modifiers": [], 
            "references": [], 
            "location": {
                "column": 20, 
                "line": 94
            }, 
            "name": "condition"
        }, 
        {
            "type": "LIST", 
            "modifiers": [], 
            "references": [], 
            "location": {
                "column": 27, 
                "line": 95
            }, 
            "name": "listpatients"
        }, 
        {
            "type": "Id", 
            "modifiers": [], 
            "references": [], 
            "location": {
                "column": 41, 
                "line": 195
            }, 
            "name": "EventId"
        }, 
        {
            "type": "Id", 
            "modifiers": [], 
            "references": [], 
            "location": {
                "column": 52, 
                "line": 195
            }, 
            "name": "CustomerID"
        }, 
        {
            "type": "Event", 
            "modifiers": [], 
            "references": [], 
            "location": {
                "column": 15, 
                "line": 198
            }, 
            "name": "Originalevent"
        }, 
        {
            "type": "Event", 
            "modifiers": [], 
            "references": [], 
            "location": {
                "column": 15, 
                "line": 199
            }, 
            "name": "WaitlistEvent"
        }, 
        {
            "type": "EventRelation", 
            "modifiers": [], 
            "references": [], 
            "location": {
                "column": 23, 
                "line": 200
            }, 
            "name": "OriginaleventRelation"
        }, 
        {
            "type": "EventRelation", 
            "modifiers": [], 
            "references": [], 
            "location": {
                "column": 23, 
                "line": 201
            }, 
            "name": "WaitlistEventRelation"
        }
    ], 
    "id": "01p28000005bxYLAAY", 
    "methods": [
        {
            "modifiers": [
                "static", 
                "public"
            ], 
            "name": "add", 
            "parameters": [
                {
                    "type": "Map", 
                    "name": "mapWaitlistdata"
                }
            ], 
            "visibility": "PUBLIC", 
            "references": [], 
            "location": {
                "column": 24, 
                "line": 8
            }, 
            "returnType": "void", 
            "type": null
        }, 
        {
            "modifiers": [
                "static", 
                "public"
            ], 
            "name": "alsoaddtowait", 
            "parameters": [
                {
                    "type": "Id", 
                    "name": "EventId"
                }, 
                {
                    "type": "Id", 
                    "name": "CustomerID"
                }
            ], 
            "visibility": "PUBLIC", 
            "references": [], 
            "location": {
                "column": 24, 
                "line": 195
            }, 
            "returnType": "void", 
            "type": null
        }
    ]
}