{
    "properties": [], 
    "externalReferences": [], 
    "innerClasses": [], 
    "interfaces": [], 
    "constructors": [
        {
            "modifiers": [
                "public"
            ], 
            "name": "DatabaseQueriesWithOutSharing", 
            "parameters": [], 
            "visibility": "PUBLIC", 
            "references": [], 
            "location": {
                "column": 12, 
                "line": 2
            }, 
            "type": null
        }
    ], 
    "namespace": null, 
    "name": "DatabaseQueriesWithOutSharing", 
    "tableDeclaration": {
        "type": "DatabaseQueriesWithOutSharing", 
        "modifiers": [
            "public", 
            "without sharing"
        ], 
        "references": [], 
        "location": {
            "column": 30, 
            "line": 1
        }, 
        "name": "DatabaseQueriesWithOutSharing"
    }, 
    "key": "01p28000007ewVUAAY", 
    "variables": [
        {
            "type": "String", 
            "modifiers": [], 
            "references": [], 
            "location": {
                "column": 62, 
                "line": 5
            }, 
            "name": "condition"
        }, 
        {
            "type": "Date", 
            "modifiers": [], 
            "references": [], 
            "location": {
                "column": 77, 
                "line": 5
            }, 
            "name": "startDate"
        }, 
        {
            "type": "Date", 
            "modifiers": [], 
            "references": [], 
            "location": {
                "column": 92, 
                "line": 5
            }, 
            "name": "endDate"
        }, 
        {
            "type": "LIST", 
            "modifiers": [], 
            "references": [], 
            "location": {
                "column": 113, 
                "line": 5
            }, 
            "name": "locationCatIdList"
        }, 
        {
            "type": "LIST", 
            "modifiers": [], 
            "references": [], 
            "location": {
                "column": 21, 
                "line": 7
            }, 
            "name": "lst"
        }, 
        {
            "type": "String", 
            "modifiers": [], 
            "references": [], 
            "location": {
                "column": 84, 
                "line": 23
            }, 
            "name": "locationId"
        }, 
        {
            "type": "String", 
            "modifiers": [], 
            "references": [], 
            "location": {
                "column": 103, 
                "line": 23
            }, 
            "name": "categoryId"
        }, 
        {
            "type": "String", 
            "modifiers": [], 
            "references": [], 
            "location": {
                "column": 122, 
                "line": 23
            }, 
            "name": "serviceProviderId"
        }, 
        {
            "type": "LIST", 
            "modifiers": [], 
            "references": [], 
            "location": {
                "column": 44, 
                "line": 25
            }, 
            "name": "lst"
        }
    ], 
    "id": "01p28000007ewVUAAY", 
    "methods": [
        {
            "modifiers": [
                "static", 
                "public"
            ], 
            "name": "getEventsWithoutSharing", 
            "parameters": [
                {
                    "type": "String", 
                    "name": "condition"
                }, 
                {
                    "type": "Date", 
                    "name": "startDate"
                }, 
                {
                    "type": "Date", 
                    "name": "endDate"
                }, 
                {
                    "type": "LIST", 
                    "name": "locationCatIdList"
                }
            ], 
            "visibility": "PUBLIC", 
            "references": [], 
            "location": {
                "column": 31, 
                "line": 5
            }, 
            "returnType": "LIST", 
            "type": null
        }, 
        {
            "modifiers": [
                "static", 
                "public"
            ], 
            "name": "getLocationCatMappings", 
            "parameters": [
                {
                    "type": "String", 
                    "name": "locationId"
                }, 
                {
                    "type": "String", 
                    "name": "categoryId"
                }, 
                {
                    "type": "String", 
                    "name": "serviceProviderId"
                }
            ], 
            "visibility": "PUBLIC", 
            "references": [], 
            "location": {
                "column": 54, 
                "line": 23
            }, 
            "returnType": "LIST", 
            "type": null
        }
    ]
}